<?xml version="1.0" encoding="UTF-8" standalone="no"?>
<svg width="23px" height="27px" viewBox="0 0 23 27" version="1.1" xmlns="http://www.w3.org/2000/svg" xmlns:xlink="http://www.w3.org/1999/xlink" xmlns:sketch="http://www.bohemiancoding.com/sketch/ns">
    <!-- Generator: Sketch 3.4.4 (17249) - http://www.bohemiancoding.com/sketch -->
    <title>play</title>
    <desc>Created with Sketch.</desc>
    <defs></defs>
    <g id="new-design01" stroke="none" stroke-width="1" fill="none" fill-rule="evenodd" sketch:type="MSPage">
        <g id="main-tooltip-info" sketch:type="MSArtboardGroup" transform="translate(-1160.000000, -17.000000)" fill="#FFFFFF">
            <g id="Group" sketch:type="MSLayerGroup" transform="translate(759.000000, 0.000000)">
                <g id="play" transform="translate(401.000000, 17.000000)" sketch:type="MSShapeGroup">
                    <g id="Play" transform="translate(0.000000, 0.000000)">
                        <path d="M21.2867236,11.4675783 L3.6817094,0.375384615 C3.16125356,0.0655270655 2.51498575,0.117150997 2.02689459,0.117150997 C0.0745299145,0.117150997 0.0831908832,1.62450142 0.0831908832,2.00638177 L0.0831908832,24.6776068 C0.0831908832,25.0004558 0.0746438746,26.5669516 2.02689459,26.5669516 C2.51498575,26.5669516 3.16136752,26.6183476 3.6817094,26.308604 L21.2866097,15.2165242 C22.7316239,14.3566952 22.4819373,13.3419943 22.4819373,13.3419943 C22.4819373,13.3419943 22.7317379,12.3272934 21.2867236,11.4675783 L21.2867236,11.4675783 Z" id="Shape"></path>
                    </g>
                </g>
            </g>
        </g>
    </g>
</svg>