<?xml version="1.0" encoding="UTF-8" standalone="no"?>
<svg width="32px" height="32px" viewBox="0 0 32 32" version="1.1" xmlns="http://www.w3.org/2000/svg" xmlns:xlink="http://www.w3.org/1999/xlink" xmlns:sketch="http://www.bohemiancoding.com/sketch/ns">
    <!-- Generator: Sketch 3.4.4 (17249) - http://www.bohemiancoding.com/sketch -->
    <title>short logo</title>
    <desc>Created with Sketch.</desc>
    <defs></defs>
    <g id="new-design01" stroke="none" stroke-width="1" fill="none" fill-rule="evenodd" sketch:type="MSPage">
        <g id="main-tooltip-info" sketch:type="MSArtboardGroup" transform="translate(-14.000000, -19.000000)">
            <g id="Group" sketch:type="MSLayerGroup">
                <g id="short-logo" transform="translate(15.000000, 20.000000)" sketch:type="MSShapeGroup">
                    <circle id="Oval-159" cx="15" cy="15" r="15"></circle>
                    <g id="Imported-Layers">
                        <path d="M16.0024382,17.9902409 C14.3384701,18.5311139 12.551455,17.6204332 12.0109155,15.9561316 C11.4703759,14.2921634 12.3807232,12.5051484 14.0443579,11.9646088 C15.708326,11.4237358 17.4956746,12.3344166 18.0362141,13.9983847 C18.5767536,15.6623528 17.6667398,17.4497014 16.0024382,17.9902409 L16.0024382,17.9902409 Z M24.7681156,15.1421544 C23.1041475,15.6830274 21.3164655,14.7720132 20.7762594,13.108045 C20.2353864,11.4447438 21.1467341,9.65706183 22.8100353,9.11652228 C24.4740034,8.57564927 26.261352,9.48666349 26.802225,11.1502982 C27.3427645,12.8142663 26.4317503,14.6019483 24.7681156,15.1421544 L24.7681156,15.1421544 Z M19.6404928,29.1878461 C11.7924988,31.7381524 3.36328308,27.443514 0.813643736,19.5948531 C-1.73699599,11.7461922 2.55830932,3.31730989 10.4063033,0.767337086 C18.2546308,-1.78263572 26.6838465,2.51200267 29.2338193,10.3599967 C31.7837921,18.2083241 27.4888202,26.6378733 19.6404928,29.1878461 L19.6404928,29.1878461 Z M17.8778203,24.2966468 C16.849428,22.8814402 17.1635478,20.8986838 18.5787544,19.8706249 C19.993961,18.8425661 21.975717,19.1566859 23.0037759,20.5712256 C24.0321682,21.987099 23.7180484,23.9691885 22.3031753,24.9975809 C20.8876352,26.0256397 18.9058792,25.7118534 17.8778203,24.2966468 L17.8778203,24.2966468 Z M7.04302023,20.5712256 C8.0710791,19.1563524 10.0528351,18.8425661 11.4683752,19.8706249 C12.8835817,20.8986838 13.1970346,22.8814402 12.1689758,24.2966468 C11.1405834,25.7118534 9.15949432,26.0253063 7.74428776,24.9975809 C6.32841427,23.9691885 6.01496136,21.9864321 7.04302023,20.5712256 L7.04302023,20.5712256 Z M7.23676081,9.11652228 C8.90039548,9.65706183 9.81174315,11.4444104 9.27087015,13.108045 C8.7303306,14.7720132 6.94231514,15.6826939 5.27901393,15.1421544 C3.6150458,14.6016148 2.70436504,12.8139328 3.24490459,11.1502982 C3.7857776,9.48633003 5.57312613,8.57564927 7.23676081,9.11652228 L7.23676081,9.11652228 Z M18.1916067,5.76057533 C18.1916067,7.50990936 16.7730655,8.92878399 15.0237315,8.92878399 C13.2743975,8.92878399 11.8558563,7.50990936 11.8558563,5.76057533 C11.8558563,4.01124129 13.2743975,2.59270012 15.0237315,2.59270012 C16.7730655,2.59270012 18.1916067,4.01124129 18.1916067,5.76057533 L18.1916067,5.76057533 Z" id="Stroke-1" stroke="#FFFFFF"></path>
                        <path d="M21.5698955,10.0342057 C20.7422464,10.8498502 20.3924463,12.08999 20.7762594,13.2701069 C21.1594056,14.4505572 22.1711249,15.2485283 23.3205634,15.4215943 C23.3235645,15.3278919 23.3275661,15.233856 23.3275661,15.1394867 C23.3275661,13.213752 22.6699819,11.4427431 21.5698955,10.0342057" id="Fill-2" fill="#FFFFFF"></path>
                        <path d="M18.5787544,20.0326868 C17.5743712,20.7622984 17.1278676,21.9720933 17.3189405,23.1191976 C19.2106622,22.5759904 20.8269454,21.3808678 21.9043565,19.7889271 C20.8726295,19.2523891 19.583471,19.3024082 18.5787544,20.0326868" id="Fill-3" fill="#FFFFFF"></path>
                        <path d="M11.4683752,20.0326868 C10.4633251,19.3024082 9.17450005,19.2523891 8.14277311,19.7889271 C9.21985068,21.3805343 10.8358005,22.5759904 12.7275222,23.1191976 C12.9185951,21.9720933 12.4724249,20.7622984 11.4683752,20.0326868" id="Fill-4" fill="#FFFFFF"></path>
                        <path d="M9.27087015,13.2701069 C9.65434978,12.08999 9.30488312,10.8498502 8.47690058,10.0342057 C7.37681424,11.4427431 6.7195635,13.213752 6.7195635,15.1394867 C6.7195635,15.233856 6.72356502,15.3278919 6.72689963,15.4215943 C7.87567121,15.2481948 8.88739052,14.4505572 9.27087015,13.2701069" id="Fill-5" fill="#FFFFFF"></path>
                        <path d="M15.0237315,9.09084582 C16.2658721,9.09084582 17.3382812,8.37390564 17.8574792,7.33250835 C16.9728084,7.01138584 16.0187778,6.83598559 15.0237315,6.83598559 C14.0283518,6.83598559 13.0743212,7.01138584 12.1899838,7.33250835 C12.7088484,8.37357218 13.7812575,9.09084582 15.0237315,9.09084582" id="Fill-6" fill="#FFFFFF"></path>
                    </g>
                </g>
            </g>
        </g>
    </g>
</svg>